{
    "name": "symbols",
    "tags": ["vim.insertions", "multiedit.count", "global"],
    "shortcuts": {
        "amp":               "ampersand",
        "ash":               "slash",
        "at sign":           "at",
        "back ash":          "backslash",
        "backtick":          "backtick",
        "bang":              "exclamation",
        "bar":               "bar",
        "cross":             "plus",
        "dollar":            "dollar",
        "dot":               "dot",
        "drip":              "comma",
        "eek":               "equal",
        "hat":               "caret",
        "hyph":              "hyphen",
        "percent":           "percent",
        "pop":               "rparen",
        "pound":             "hash",
        "push":              "lparen",
        "quest":             "question",
        "quote":             "dquote",
        "rail":              "underscore",
        "semi":              "semicolon",
        "smote":             "squote",
        "star":              "asterisk",
        "tilde":             "tilde",
        "yeah":              "colon",
        "brace":             "lbrace",
        "race":              "rbrace",
        "bracket":           "lbracket",
        "racket":            "rbracket",
        "angle":             "langle",
        "wrangle":           "rangle",
        "box":               [{"type": "Text", "args": ["{}"]}, {"type": "Key", "args": ["left:1"]}],
        "circle":            [{"type": "Text", "args": ["()"]}, {"type": "Key", "args": ["left:1"]}],
        "diamond":           [{"type": "Text", "args": ["<>"]}, {"type": "Key", "args": ["left:1"]}],
        "nest quote":        [{"type": "Text", "args": ["\"\""]}, {"type": "Key", "args": ["left:1"]}],
        "nest smote":        [{"type": "Text", "args": ["''"]}, {"type": "Key", "args": ["left:1"]}],
        "square":            [{"type": "Text", "args": ["[]"]}, {"type": "Key", "args": ["left:1"]}]
    }
}
